<?xml version="1.0" encoding="UTF-8" standalone="no"?>
<svg
   xmlns:dc="http://purl.org/dc/elements/1.1/"
   xmlns:cc="http://creativecommons.org/ns#"
   xmlns:rdf="http://www.w3.org/1999/02/22-rdf-syntax-ns#"
   xmlns:svg="http://www.w3.org/2000/svg"
   xmlns="http://www.w3.org/2000/svg"
   xmlns:xlink="http://www.w3.org/1999/xlink"
   width="2560"
   height="1700"
   viewBox="0 0 2560 1700"
   version="1.1"
   id="svg859">
  <defs
     id="defs853">
    <linearGradient
       xlink:href="#linearGradient1000"
       id="linearGradient957"
       gradientUnits="userSpaceOnUse"
       gradientTransform="matrix(3.7795275,0,0,3.7795275,29.089662,2213.3191)"
       x1="72.144257"
       y1="290.28198"
       x2="73.284485"
       y2="-76.676659" />
    <linearGradient
       id="linearGradient1000">
      <stop
         style="stop-color:#b2a8f0;stop-opacity:0.80000001"
         offset="0"
         id="stop996" />
      <stop
         style="stop-color:#b2a8f0;stop-opacity:0"
         offset="1"
         id="stop998" />
    </linearGradient>
    <linearGradient
       xlink:href="#linearGradient926"
       id="linearGradient928"
       x1="71.608856"
       y1="273.21036"
       x2="72.673424"
       y2="-88.741585"
       gradientUnits="userSpaceOnUse"
       gradientTransform="matrix(3.7795275,0,0,3.7795275,-694.81439,13.771971)" />
    <linearGradient
       id="linearGradient926">
      <stop
         style="stop-color:#eccb6f;stop-opacity:0"
         offset="0"
         id="stop922" />
      <stop
         style="stop-color:#eccb6f;stop-opacity:0.80000001"
         offset="1"
         id="stop924" />
    </linearGradient>
    <radialGradient
       xlink:href="#linearGradient1658"
       id="radialGradient1660-35"
       cx="-302.08417"
       cy="239.41357"
       fx="-302.08417"
       fy="239.41357"
       r="254"
       gradientTransform="matrix(1.4344016,-8.8292737e-4,8.7328689e-4,1.4186761,1713.1071,510.0939)"
       gradientUnits="userSpaceOnUse" />
    <linearGradient
       id="linearGradient1658">
      <stop
         style="stop-color:#fcfcfc;stop-opacity:0.27000001"
         offset="0"
         id="stop1654" />
      <stop
         style="stop-color:#373237;stop-opacity:1"
         offset="1"
         id="stop1656" />
    </linearGradient>
  </defs>
  <metadata
     id="metadata856">
    <rdf:RDF>
      <cc:Work
         rdf:about="">
        <dc:format>image/svg+xml</dc:format>
        <dc:type
           rdf:resource="http://purl.org/dc/dcmitype/StillImage" />
        <dc:title></dc:title>
      </cc:Work>
    </rdf:RDF>
  </metadata>
  <g
     id="layer1">
    <rect
       style="fill:#000000;fill-opacity:1;stroke-width:0"
       id="rect1458"
       width="2560"
       height="1700"
       x="0"
       y="0" />
    <rect
       style="fill:#489292;fill-opacity:1;stroke-width:1.29602;stroke-linejoin:round;stop-color:#000000"
       id="rect898-7"
       width="360"
       height="720"
       x="106.22813"
       y="-1893.5364"
       transform="rotate(119.25)" />
    <rect
       style="fill:#cc648a;fill-opacity:1;stroke-width:1.29602;stroke-linejoin:round;stop-color:#000000"
       id="rect898"
       width="360"
       height="720"
       x="-247.55966"
       y="-1894.7233"
       transform="rotate(119.25)" />
    <rect
       style="display:inline;fill:url(#radialGradient1660-35);fill-opacity:1;stroke:none;stroke-width:0;stroke-linejoin:round;stroke-miterlimit:4;stroke-dasharray:none;stop-color:#000000"
       id="rect1053-6-9"
       width="2560"
       height="1700"
       x="0"
       y="0"
       rx="8"
       ry="8" />
    <rect
       style="fill:url(#linearGradient957);fill-opacity:1;stroke-width:2.12451;stroke-linejoin:round;stop-color:#000000"
       id="rect920-5"
       width="50"
       height="1432.5299"
       x="275.76086"
       y="1877.9178"
       transform="rotate(-49)" />
    <rect
       style="fill:url(#linearGradient928);fill-opacity:1;stroke-width:2.12451;stroke-linejoin:round;stop-color:#000000"
       id="rect920"
       width="50"
       height="1432.5299"
       x="-448.14316"
       y="-321.62924"
       transform="rotate(-75)" />
  </g>
</svg>
