<?xml version="1.0" encoding="UTF-8" standalone="no"?>
<svg
   xmlns:dc="http://purl.org/dc/elements/1.1/"
   xmlns:cc="http://creativecommons.org/ns#"
   xmlns:rdf="http://www.w3.org/1999/02/22-rdf-syntax-ns#"
   xmlns:svg="http://www.w3.org/2000/svg"
   xmlns="http://www.w3.org/2000/svg"
   xmlns:xlink="http://www.w3.org/1999/xlink"
   width="2560"
   height="1700"
   viewBox="0 0 2560 1700"
   version="1.1"
   id="svg859">
  <defs
     id="defs853">
    <filter
       style="color-interpolation-filters:sRGB"
       id="filter1090-6"
       x="-0.147"
       width="1.294"
       y="-0.147"
       height="1.294">
      <feGaussianBlur
         stdDeviation="10.770576"
         id="feGaussianBlur1092-7" />
    </filter>
    <radialGradient
       xlink:href="#linearGradient921"
       id="radialGradient923-5"
       cx="-537.07037"
       cy="30.018776"
       fx="-537.07037"
       fy="30.018776"
       r="95.25"
       gradientUnits="userSpaceOnUse"
       gradientTransform="matrix(3.7795275,0,0,3.7795275,3423.4142,-760.71278)" />
    <linearGradient
       id="linearGradient921">
      <stop
         style="stop-color:#fcfcfc;stop-opacity:0.31999999"
         offset="0"
         id="stop917" />
      <stop
         style="stop-color:#373237;stop-opacity:0.40000001"
         offset="1"
         id="stop919" />
    </linearGradient>
    <linearGradient
       xlink:href="#linearGradient926"
       id="linearGradient928"
       x1="71.608856"
       y1="273.21036"
       x2="72.673424"
       y2="-88.741585"
       gradientUnits="userSpaceOnUse"
       gradientTransform="matrix(3.7795275,0,0,3.7795275,-694.81437,13.771978)" />
    <linearGradient
       id="linearGradient926">
      <stop
         style="stop-color:#e1bb56;stop-opacity:0.05098039"
         offset="0"
         id="stop922" />
      <stop
         style="stop-color:#e1bb56;stop-opacity:1"
         offset="1"
         id="stop924" />
    </linearGradient>
    <linearGradient
       xlink:href="#linearGradient1000"
       id="linearGradient957"
       gradientUnits="userSpaceOnUse"
       gradientTransform="matrix(3.7795275,0,0,3.7795275,29.089692,2213.319)"
       x1="72.144257"
       y1="290.28198"
       x2="73.284485"
       y2="-76.676659" />
    <linearGradient
       id="linearGradient1000">
      <stop
         style="stop-color:#7d73c3;stop-opacity:1"
         offset="0"
         id="stop996" />
      <stop
         style="stop-color:#7d73c3;stop-opacity:0.05"
         offset="1"
         id="stop998" />
    </linearGradient>
  </defs>
  <metadata
     id="metadata856">
    <rdf:RDF>
      <cc:Work
         rdf:about="">
        <dc:format>image/svg+xml</dc:format>
        <dc:type
           rdf:resource="http://purl.org/dc/dcmitype/StillImage" />
        <dc:title></dc:title>
      </cc:Work>
    </rdf:RDF>
  </metadata>
  <g
     id="layer1">
    <rect
       style="fill:#9b969b;fill-opacity:1;stroke-width:0"
       id="rect1458-3"
       width="2560"
       height="1700"
       x="0"
       y="0" />
    <path
       id="rect1458-36"
       style="fill:#000000;fill-opacity:1;stroke-width:0"
       d="M 0,0 V 8 C 0,3.568 3.568,0 8,0 Z m 2552,0 c 4.432,0 8,3.568 8,8 V 0 Z M 0,1692 v 8 h 8 c -4.432,0 -8,-3.568 -8,-8 z m 2560,0 c 0,4.432 -3.568,8 -8,8 h 8 z" />
    <g
       id="g913-6"
       transform="matrix(3.2976227,1.8467574,-1.8467574,3.2976227,-1475.6828,-1105.8658)"
       style="display:inline">
      <path
         style="fill:#489292;fill-opacity:1;stroke-width:1.19294;stroke-linejoin:round;stop-color:#000000"
         id="path869-2"
         d="m 984.25,95.25 a 95.25,95.25 0 0 1 -47.625,82.48892 95.25,95.25 0 0 1 -95.25,0 A 95.25,95.25 0 0 1 793.75,95.25 H 889 Z" />
      <path
         style="fill:#cc648a;fill-opacity:1;stroke-width:1.19294;stroke-linejoin:round;stop-color:#000000"
         id="path869-6-9"
         transform="scale(-1)"
         d="m -793.75,-95.25 a 95.25,95.25 0 0 1 -47.625,82.48892 95.25,95.25 0 0 1 -95.25,-2e-6 A 95.25,95.25 0 0 1 -984.25,-95.25 H -889 Z" />
    </g>
    <circle
       style="display:inline;mix-blend-mode:normal;fill:#373237;fill-opacity:0;stroke:#9b969b;stroke-width:14.6539;stroke-linejoin:round;stroke-miterlimit:4;stroke-dasharray:none;stroke-opacity:0.85;filter:url(#filter1090-6);stop-color:#000000"
       id="path915-6-1"
       cx="1122.4766"
       cy="389.10385"
       r="87.923073"
       transform="matrix(3.7795275,0,0,3.7795275,-2962.4309,-620.62859)" />
    <ellipse
       style="display:inline;mix-blend-mode:normal;fill:url(#radialGradient923-5);fill-opacity:1;stroke-width:6.02211;stroke-linejoin:round;stop-color:#000000"
       id="path915-2"
       cx="1393.5422"
       cy="-647.25592"
       rx="359.99991"
       ry="359.99997"
       transform="rotate(58.5)" />
    <rect
       style="fill:url(#linearGradient928);fill-opacity:1;stroke-width:2.12451;stroke-linejoin:round;stop-color:#000000"
       id="rect920"
       width="50"
       height="1432.5299"
       x="-448.14316"
       y="-321.62924"
       transform="rotate(-75)" />
    <rect
       style="fill:url(#linearGradient957);fill-opacity:1;stroke-width:2.12451;stroke-linejoin:round;stop-color:#000000"
       id="rect920-5"
       width="50"
       height="1432.5299"
       x="275.76093"
       y="1877.9178"
       transform="rotate(-49)" />
  </g>
</svg>
